{
  "playlist_name": "360video.pls",
  "directory": "360video",
  "videos": [
    {
      "title": "TDIS, transport inside the LHC in 360°",
      "url_cds": "https://videos.cern.ch/record/2723799",
      "url_video": "https://videos.cern.ch/api/files/486f3d4b-e39e-4bc1-9a50-9ec2ed14a25d/1024p.mp4?versionId=6b121ff7-9945-48ee-be50-fc31d053a95c&download",
      "filename": "CERN-FOOTAGE-2020-034-003-1024p.mp4"
    }
  ]
}
