{
  "playlist_name": "ATLAS.pls",
  "directory": "ATLAS",
  "videos": [
    {
      "title": "ATLAS experiment - Episode 1 - A New Hope",
      "url_cds": "https://videos.cern.ch/record/1096389",
      "url_video": "https://videos.cern.ch/api/files/b74cd9b0-4918-4599-b2f2-5526ccdfaf56/480p.mp4?versionId=a8b45a88-38bd-4fc7-a404-046f136a05cd&download",
      "filename": "CERN-VIDEO-2006-018-001-480p.mp4"
    },
    {
      "title": "ATLAS experiment - Episode 2 - The Particles Strike Back",
      "url_cds": "https://videos.cern.ch/record/1096390",
      "url_video": "https://videos.cern.ch/api/files/dea2fe5f-5b40-4337-a5e4-0c1fea14bdf5/480p.mp4?versionId=7ba519c1-e562-42ae-8d88-37cf8dd12555&download",
      "filename": "CERN-VIDEO-2006-019-001-480p.mp4"
    },
    {
      "title": "ATLAS Event - How ATLAS Detects Particles",
      "url_cds": "https://videos.cern.ch/record/1458883",
      "url_video": "https://videos.cern.ch/api/files/8cd9f09b-6e12-420b-9fc9-a918f0196820/CERN-VIDEO-2006-057-001.mpg?versionId=fe84aafd-55e4-4afb-a65a-5297328c9115&download",
      "filename": "CERN-VIDEO-2006-057-001.mpg"
    },
    {
      "title": "Fast Forward to Physics",
      "url_cds": "https://videos.cern.ch/record/2018441",
      "url_video": "https://videos.cern.ch/api/files/6e2228d7-09e1-4cbc-bf79-2c39fe4f9e66/1080p.mp4?versionId=099fa20b-844c-4270-9946-aa8172b87074&download",
      "filename": "OPEN-VIDEO-2015-012-001-1080p.mp4"
    },
    {
      "title": "Standard Model survives stringent test of lepton universality at the ATLAS experiment",
      "url_cds": "https://videos.cern.ch/record/2724848",
      "url_video": "https://videos.cern.ch/api/files/2e9448d8-3bb0-4d31-a79d-8932a21effea/1080ph265.mp4?versionId=ae1cfa14-eb1c-4939-9f66-5d9719c6b425&download",
      "filename": "CERN-VIDEO-2020-037-001-1080ph265.mp4"
    },
    {
      "title": "ATLAS Experiment Colouring Book",
      "url_cds": "https://videos.cern.ch/record/2226604",
      "url_video": "https://videos.cern.ch/api/files/a551887c-fc3a-4ca0-8752-770db468a92f/1080ph265.mp4?versionId=ec4b2e55-5f0f-4d12-86ff-decd1d4db11c&download",
      "filename": "OPEN-VIDEO-2016-030-001-1080ph265.mp4"
    },
    {
      "title": "Happy Birthday ATLAS",
      "url_cds": "https://videos.cern.ch/record/2286974",
      "url_video": "https://videos.cern.ch/api/files/6c1547b4-2335-4e74-b63c-19d59b293339/1080p.mp4?versionId=fb8512e8-a967-4625-94f8-ef7906558fe1&download",
      "filename": "ATLAS-VIDEO-2017-024-001-1080p.mp4"
    },
    {
      "title": "ATLAS Virtual Visit Promotional Video",
      "url_cds": "https://videos.cern.ch/record/2147468",
      "url_video": "https://videos.cern.ch/api/files/a7191972-c753-4ccd-bf70-497c0ed3b986/1080p.mp4?versionId=880e5cfe-53da-442a-9068-72c45a8c2a02&download",
      "filename": "ATLAS-VIDEO-2016-009-001-1080p.mp4"
    },
    {
      "title": "ATLAS publishes first high-precision measurement of the W-boson mass at the LHC",
      "url_cds": "https://videos.cern.ch/record/2290534",
      "url_video": "https://videos.cern.ch/api/files/7feac3c0-101a-4383-93a8-93d0a69c93bf/1080ph265.mp4?versionId=42e344e4-f1c8-49b8-8a86-3006773bd811&download",
      "filename": "CERN-VIDEO-2017-039-001-1080ph265.mp4"
    },
    {
      "title": "Celebrating 25 Years of Discovery",
      "url_cds": "https://videos.cern.ch/record/2286473",
      "url_video": "https://videos.cern.ch/api/files/2600cc77-bc48-4250-85e2-e40fc05baed0/1080p.mp4?versionId=875013da-d336-4904-8849-9c72d826ebe0&download",
      "filename": "ATLAS-VIDEO-2017-023-001-1080p.mp4"
    },
    {
      "title": "ATLAScraft Trailer",
      "url_cds": "https://videos.cern.ch/record/2297194",
      "url_video": "https://videos.cern.ch/api/files/96457fbd-dd89-4bef-a14b-7bf6b342ea2c/1080ph265.mp4?versionId=bba6b074-151e-4552-91c2-a870895764ea&download",
      "filename": ""
    },
    {
      "title": "Stock footage ATLAS-ALFA experiment November 2016",
      "url_cds": "https://videos.cern.ch/record/2235457",
      "url_video": "https://videos.cern.ch/api/files/df25e18d-f9f5-45d2-ba96-7263c1ac350a/1080p.mp4?versionId=78d6383b-fcc3-481a-91b1-9909c75f4f3c&download",
      "filename": "CERN-FOOTAGE-2016-042-001-1080p.mp4"
    },
    {
      "title": "ATLAS small wheel operation",
      "url_cds": "https://videos.cern.ch/record/2712866",
      "url_video": "https://videos.cern.ch/api/files/b5164673-9696-4d5d-af78-5fc119a9249c/1080ph265.mp4?versionId=a160dda4-eea8-4e6d-b6bf-20bbecef6377&download",
      "filename": "CERN-FOOTAGE-2020-013-001-1080ph265.mp4"
    },
    {
      "title": "ATLAS LS2",
      "url_cds": "https://videos.cern.ch/record/2658311",
      "url_video": "https://videos.cern.ch/api/files/4fc121ef-09ed-4d90-9c81-48912798752c/1080ph265.mp4?versionId=c1cfaf8e-83df-41b5-96d2-8044fec2997f&download",
      "filename": "CERN-FOOTAGE-2019-003-001-1080ph265.mp4"
    }
  ]
}
