{
  "playlist_name": "CERN.pls",
  "directory": "CERN",
  "videos": [
    {
      "title": "CERN in safe-mode",
      "url_cds": "https://videos.cern.ch/record/2718063",
      "url_video": "https://videos.cern.ch/api/files/2bd56695-ae7f-4ed2-a783-e3d6943b09e3/1080ph265.mp4?versionId=b046d699-99d1-4de5-afb7-74dc8701a3e5&download",
      "filename": "CERN-VIDEO-2020-024-001-1080ph265.mp4"
    },
    {
      "title": "Designing the Future Circular Collider (teaser)",
      "url_cds": "https://videos.cern.ch/record/2653671",
      "url_video": "https://videos.cern.ch/api/files/39c4d410-3eb7-42f6-b4b1-da0907c428c9/1080ph265.mp4?versionId=02833ed5-b43c-4aea-88b8-62b9df805333&download",
      "filename": "OPEN-VIDEO-2019-002-001-1080ph265.mp4"
    },
    {
      "title": "FCC study animation",
      "url_cds": "https://videos.cern.ch/record/2300644",
      "url_video": "https://videos.cern.ch/api/files/41b9ea3f-2388-4f4d-bb0e-e7b23ee11081/1080ph265.mp4?versionId=2af9bc25-d561-4403-9853-f61b9345bb50&download",
      "filename": "OPEN-VIDEO-2017-035-002-1080ph265.mp4"
    },
    {
      "title": "HL-LHC video story",
      "url_cds": "https://videos.cern.ch/record/2622078",
      "url_video": "https://videos.cern.ch/api/files/72403d00-8ec8-462c-9056-4f8d324aee25/1080ph265.mp4?versionId=ad8b3f17-1b0f-418e-bcd7-b5abfb39995a&download",
      "filename": "CERN-VIDEO-2018-019-004-1080ph265.mp4"
    },
    {
      "title": "HL-LHC press clip",
      "url_cds": "https://videos.cern.ch/record/2621965",
      "url_video": "https://videos.cern.ch/api/files/59226913-844f-4c68-99f5-8d4b18471895/1080ph265.mp4?versionId=1ffdb974-e4f5-4456-8b57-669ba655c0dc&download",
      "filename": "CERN-VIDEO-2018-020-002-1080ph265.mp4"
    },
    {
      "title": "Animation of CERN's accelerator network",
      "url_cds": "https://videos.cern.ch/record/1610170",
      "url_video": "https://videos.cern.ch/api/files/94369d4b-46d2-4314-9f6c-eefaf1e3aba4/1080p.mp4?versionId=5b899531-8e3b-4c6e-9df4-7c3728a8dce5&download",
      "filename": "CERN-VIDEO-2013-121-001-1080p.mp4"
    },
    {
      "title": "HIGHLIGHTS LHC First Beam - Accelerating Science : 10 September 2008",
      "url_cds": "https://videos.cern.ch/record/1125916",
      "url_video": "https://videos.cern.ch/api/files/eac4a9a6-f236-4d39-a7fa-790ba0145109/480p.mp4?versionId=f7344c0d-70e2-479a-90b7-4c788905ab6b&download",
      "filename": "CERN-VIDEO-2008-083-001-480p.mp4"
    },
    {
      "title": "The LHC project",
      "url_cds": "https://videos.cern.ch/record/988779",
      "url_video": "https://videos.cern.ch/api/files/6ca92989-74e6-442f-9731-228e60e220ca/480p.mp4?versionId=7913d23e-fe6d-49fc-91f6-250dc211633c&download",
      "filename": "CERN-VIDEO-2000-012-001-480p.mp4"
    },
    {
      "title": "Animation : Journey to discover the nature of mass (the Higgs Field)",
      "url_cds": "https://videos.cern.ch/record/1128122",
      "url_video": "https://videos.cern.ch/api/files/cd26ccf8-d7a2-4cf7-9ac3-b860a614a00e/1080p.mp4?versionId=4e4f0cbd-590d-43e2-8cf4-1f1df841e6a2&download",
      "filename": "CERN-VIDEO-2008-084-001-1080p.mp4"
    },
    {
      "title": "LHC Superconducting Magnets",
      "url_cds": "https://videos.cern.ch/record/43014",
      "url_video": "https://videos.cern.ch/api/files/5472624d-32ee-4f41-a807-23e1891c719d/480p.mp4?versionId=76a2967f-39ba-4727-969d-630a2a5c9ebd&download",
      "filename": "CERN-VIDEO-2000-007-001-480p.mp4"
    },
    {
      "title": "How to get more collisions at the LHC / crab cavities",
      "url_cds": "https://videos.cern.ch/record/2294792",
      "url_video": "https://videos.cern.ch/api/files/a1a5d5c1-4505-4225-8bf9-6d7a7e5ae716/1080ph265.mp4?versionId=50176d01-c7af-4f49-adc6-a4389098fd4e&download",
      "filename": "CERN-VIDEO-2017-043-002-1080ph265.mp4"
    },
    {
      "title": "CERN OVERVIEW animation",
      "url_cds": "https://videos.cern.ch/record/2020780",
      "url_video": "https://videos.cern.ch/api/files/aa2853a4-b558-484a-a6d2-ba2300b1d300/1080p.mp4?versionId=98d16635-2599-4bca-aa0a-b689f79c5fe7&download",
      "filename": "CERN-VIDEO-2015-024-001-1080p.mp4"
    },
    {
      "title": "Ex / Noise / CERN / Deerhoof",
      "url_cds": "https://videos.cern.ch/record/2053121",
      "url_video": "https://videos.cern.ch/api/files/61af5d2c-9472-4107-b64f-cec4b3c051d8/1080p.mp4?versionId=9d4b969b-aa49-431e-b539-b13e9b1980d6&download",
      "filename": "CERN-VIDEO-2015-038-001-1080p.mp4"
    },
    {
      "title": "Jeff FROST, video artist for U2, visits CERN",
      "url_cds": "https://videos.cern.ch/record/2057097",
      "url_video": "https://videos.cern.ch/api/files/63eadbeb-7b47-44f8-8573-618872f02318/1080p.mp4?versionId=dd501369-7951-4aa0-a456-af847aedcf19&download",
      "filename": "CERN-VIDEO-2015-036-001-1080p.mp4"
    },
    {
      "title": "Science knows no borders",
      "url_cds": "https://videos.cern.ch/record/2639808",
      "url_video": "https://videos.cern.ch/api/files/848df3b7-0b03-49a6-8c41-32ee336722b1/1080ph265.mp4?versionId=a4edc2ce-38e6-4b64-b422-96347fe105c9&download",
      "filename": "OPEN-VIDEO-2018-040-001-1080ph265.mp4"
    },
    {
      "title": "Jerome Friedman on W prime and Z Prime",
      "url_cds": "https://videos.cern.ch/record/1401804",
      "url_video": "https://videos.cern.ch/api/files/a8e52424-9cd6-40bf-b7fe-1fbb4f0f9835/1080p.mp4?versionId=ec76e55e-2fbb-452a-8311-4022fac664d9&download",
      "filename": "CERN-VIDEO-2011-173-001-1080p.mp4"
    },
    {
      "title": "LINAC4 CERN's newest accelerator awakens",
      "url_cds": "https://videos.cern.ch/record/2728455",
      "url_video": "https://videos.cern.ch/api/files/e4639fc4-283b-40f5-a30b-afef49f3e063/1080ph265.mp4?versionId=50f8d812-09f6-44fe-9a21-daa87f03fc59&download",
      "filename": "CERN-VIDEO-2020-038-002-1080ph265.mp4"
    },
    {
      "title": "Higgs boson, Fabiola Gianotti CERN DG",
      "url_cds": "https://videos.cern.ch/record/2273231",
      "url_video": "https://videos.cern.ch/api/files/481dfdbc-22b1-4978-bba1-e67eba53d2e1/1080ph265.mp4?versionId=a7e49b08-148d-4956-885b-2dc5dc6287f6&download",
      "filename": "CERN-VIDEO-2017-023-002-1080ph265.mp4"
    },
    {
      "title": "Happy 5th anniversary, Higgs boson!",
      "url_cds": "https://videos.cern.ch/record/2272973",
      "url_video": "https://videos.cern.ch/api/files/bcc455e3-a26a-47d7-b2e1-082fac6c9c2d/1080p.mp4?versionId=3a40d7e0-1293-4abc-bdbe-9e3e6f013a2a&download",
      "filename": "CERN-VIDEO-2017-023-001-1080p.mp4"
    },
    {
      "title": "High-Luminosity LHC long version",
      "url_cds": "https://videos.cern.ch/record/2651176",
      "url_video": "https://videos.cern.ch/api/files/331c60f6-91ab-4dbd-8323-7411a7fe0219/1080ph265.mp4?versionId=9ff88d89-2b1b-4f3a-86f4-6d6e0f3de32c&download",
      "filename": "CERN-VIDEO-2018-040-002-1080ph265.mp4"
    }
  ]
}
